{

	"_id" : "507f1f77bcf86cd799439011",
	"firstName" : "John",
	"lastName" : "Smith",
	"email" : "johnsmith@mail.com",
	"password" : "johnandsome",
	"isAdmin" : false,
	"mobileNumber" : "09123456789",
	"enrollments" : ["601ccbe89bcd482ee8fa2c99", "507f191e810c19729de860ea"],
	"dateTimeRegistered" : "2020-03-15T15:00:00.00Z"

}

{

	"_id" : "507f1f77bcf86cd799439012",
	"firstName" : "Jane",
	"lastName" : "Doe",
	"email" : "janedoe@zuitt.com",
	"password" : "janepretty",
	"isAdmin" : true,
	"mobileNumber" : "09123456789",
	"enrollments" : [],
	"dateTimeRegistered" : "2020-03-15T15:00:00.00Z"

}


{

	"_id" : "507f1f297b5f26cd799439011",
	"firstName" : "Rafael",
	"lastName" : "Fadriquela",
	"email" : "rrfadr@zuitt.com",
	"password" : "qweerty",
	"isAdmin" : true,
	"mobileNumber" : "09987654321",
	"enrollments" : [],
	"dateTimeRegistered" : "2021-03-15T15:00:00.00Z"

}
